%YAML 1.1
%TAG !u! tag:unity3d.com,2011:
--- !u!74 &7400000
AnimationClip:
  m_ObjectHideFlags: 0
  m_CorrespondingSourceObject: {fileID: 0}
  m_PrefabInstance: {fileID: 0}
  m_PrefabAsset: {fileID: 0}
  m_Name: key-idle
  serializedVersion: 6
  m_Legacy: 0
  m_Compressed: 0
  m_UseHighQualityCurve: 1
  m_RotationCurves: []
  m_CompressedRotationCurves: []
  m_EulerCurves: []
  m_PositionCurves: []
  m_ScaleCurves: []
  m_FloatCurves: []
  m_PPtrCurves:
  - curve:
    - time: 0
      value: {fileID: 1509690687825009327, guid: 91f1ea3f71d24e648aef06ec460cea7f,
        type: 3}
    - time: 0.083333336
      value: {fileID: -1041377646201670004, guid: 91f1ea3f71d24e648aef06ec460cea7f,
        type: 3}
    - time: 0.13333334
      value: {fileID: -7453662367257214878, guid: 91f1ea3f71d24e648aef06ec460cea7f,
        type: 3}
    - time: 0.21666667
      value: {fileID: -5596862556851936502, guid: 91f1ea3f71d24e648aef06ec460cea7f,
        type: 3}
    - time: 0.3
      value: {fileID: -5436100206935435719, guid: 91f1ea3f71d24e648aef06ec460cea7f,
        type: 3}
    - time: 0.36666667
      value: {fileID: -739888894572915949, guid: 91f1ea3f71d24e648aef06ec460cea7f,
        type: 3}
    - time: 0.43333334
      value: {fileID: -4751331788578724310, guid: 91f1ea3f71d24e648aef06ec460cea7f,
        type: 3}
    - time: 0.48333332
      value: {fileID: 4951209121555206185, guid: 91f1ea3f71d24e648aef06ec460cea7f,
        type: 3}
    - time: 0.56666666
      value: {fileID: 1591143898244122516, guid: 91f1ea3f71d24e648aef06ec460cea7f,
        type: 3}
    - time: 0.6333333
      value: {fileID: 1355542653451762569, guid: 91f1ea3f71d24e648aef06ec460cea7f,
        type: 3}
    - time: 0.7
      value: {fileID: -3745036264285597575, guid: 91f1ea3f71d24e648aef06ec460cea7f,
        type: 3}
    - time: 0.78333336
      value: {fileID: 4143883161139031683, guid: 91f1ea3f71d24e648aef06ec460cea7f,
        type: 3}
    - time: 0.8666667
      value: {fileID: 8166998348595803618, guid: 91f1ea3f71d24e648aef06ec460cea7f,
        type: 3}
    - time: 0.9166667
      value: {fileID: 8574912610122105026, guid: 91f1ea3f71d24e648aef06ec460cea7f,
        type: 3}
    - time: 1
      value: {fileID: 1079820144599227151, guid: 91f1ea3f71d24e648aef06ec460cea7f,
        type: 3}
    attribute: m_Sprite
    path: 
    classID: 212
    script: {fileID: 0}
  m_SampleRate: 60
  m_WrapMode: 0
  m_Bounds:
    m_Center: {x: 0, y: 0, z: 0}
    m_Extent: {x: 0, y: 0, z: 0}
  m_ClipBindingConstant:
    genericBindings:
    - serializedVersion: 2
      path: 0
      attribute: 0
      script: {fileID: 0}
      typeID: 212
      customType: 23
      isPPtrCurve: 1
    pptrCurveMapping:
    - {fileID: 1509690687825009327, guid: 91f1ea3f71d24e648aef06ec460cea7f, type: 3}
    - {fileID: -1041377646201670004, guid: 91f1ea3f71d24e648aef06ec460cea7f, type: 3}
    - {fileID: -7453662367257214878, guid: 91f1ea3f71d24e648aef06ec460cea7f, type: 3}
    - {fileID: -5596862556851936502, guid: 91f1ea3f71d24e648aef06ec460cea7f, type: 3}
    - {fileID: -5436100206935435719, guid: 91f1ea3f71d24e648aef06ec460cea7f, type: 3}
    - {fileID: -739888894572915949, guid: 91f1ea3f71d24e648aef06ec460cea7f, type: 3}
    - {fileID: -4751331788578724310, guid: 91f1ea3f71d24e648aef06ec460cea7f, type: 3}
    - {fileID: 4951209121555206185, guid: 91f1ea3f71d24e648aef06ec460cea7f, type: 3}
    - {fileID: 1591143898244122516, guid: 91f1ea3f71d24e648aef06ec460cea7f, type: 3}
    - {fileID: 1355542653451762569, guid: 91f1ea3f71d24e648aef06ec460cea7f, type: 3}
    - {fileID: -3745036264285597575, guid: 91f1ea3f71d24e648aef06ec460cea7f, type: 3}
    - {fileID: 4143883161139031683, guid: 91f1ea3f71d24e648aef06ec460cea7f, type: 3}
    - {fileID: 8166998348595803618, guid: 91f1ea3f71d24e648aef06ec460cea7f, type: 3}
    - {fileID: 8574912610122105026, guid: 91f1ea3f71d24e648aef06ec460cea7f, type: 3}
    - {fileID: 1079820144599227151, guid: 91f1ea3f71d24e648aef06ec460cea7f, type: 3}
  m_AnimationClipSettings:
    serializedVersion: 2
    m_AdditiveReferencePoseClip: {fileID: 0}
    m_AdditiveReferencePoseTime: 0
    m_StartTime: 0
    m_StopTime: 1.0166667
    m_OrientationOffsetY: 0
    m_Level: 0
    m_CycleOffset: 0
    m_HasAdditiveReferencePose: 0
    m_LoopTime: 1
    m_LoopBlend: 0
    m_LoopBlendOrientation: 0
    m_LoopBlendPositionY: 0
    m_LoopBlendPositionXZ: 0
    m_KeepOriginalOrientation: 0
    m_KeepOriginalPositionY: 1
    m_KeepOriginalPositionXZ: 0
    m_HeightFromFeet: 0
    m_Mirror: 0
  m_EditorCurves: []
  m_EulerEditorCurves: []
  m_HasGenericRootTransform: 0
  m_HasMotionFloatCurves: 0
  m_Events: []
