%YAML 1.1
%TAG !u! tag:unity3d.com,2011:
--- !u!114 &1
MonoBehaviour:
  m_ObjectHideFlags: 52
  m_CorrespondingSourceObject: {fileID: 0}
  m_PrefabInstance: {fileID: 0}
  m_PrefabAsset: {fileID: 0}
  m_GameObject: {fileID: 0}
  m_Enabled: 1
  m_EditorHideFlags: 0
  m_Script: {fileID: 11500000, guid: 4009bdfbd908ccf41a101be04ed6567d, type: 3}
  m_Name: Default Brush
  m_EditorClassIdentifier: 
  m_Cells:
  - m_Tile: {fileID: 11400000, guid: 9e471aa424439fd45bc0fef1a1e3755e, type: 2}
    m_Matrix:
      e00: 1
      e01: 0
      e02: 0
      e03: 0
      e10: 0
      e11: 1
      e12: 0
      e13: 0
      e20: 0
      e21: 0
      e22: 1
      e23: 0
      e30: 0
      e31: 0
      e32: 0
      e33: 1
    m_Color: {r: 1, g: 1, b: 1, a: 1}
  - m_Tile: {fileID: 11400000, guid: 8f2c66443a0ce9641a8adfa9eaef7640, type: 2}
    m_Matrix:
      e00: 1
      e01: 0
      e02: 0
      e03: 0
      e10: 0
      e11: 1
      e12: 0
      e13: 0
      e20: 0
      e21: 0
      e22: 1
      e23: 0
      e30: 0
      e31: 0
      e32: 0
      e33: 1
    m_Color: {r: 1, g: 1, b: 1, a: 1}
  - m_Tile: {fileID: 11400000, guid: c4da012bdc540bb47bb7714610827221, type: 2}
    m_Matrix:
      e00: 1
      e01: 0
      e02: 0
      e03: 0
      e10: 0
      e11: 1
      e12: 0
      e13: 0
      e20: 0
      e21: 0
      e22: 1
      e23: 0
      e30: 0
      e31: 0
      e32: 0
      e33: 1
    m_Color: {r: 1, g: 1, b: 1, a: 1}
  - m_Tile: {fileID: 11400000, guid: 8fed9708c979c624ab36f7b913ebc134, type: 2}
    m_Matrix:
      e00: 1
      e01: 0
      e02: 0
      e03: 0
      e10: 0
      e11: 1
      e12: 0
      e13: 0
      e20: 0
      e21: 0
      e22: 1
      e23: 0
      e30: 0
      e31: 0
      e32: 0
      e33: 1
    m_Color: {r: 1, g: 1, b: 1, a: 1}
  - m_Tile: {fileID: 11400000, guid: 61fa4cd868210ce4f9d53ed2481605d7, type: 2}
    m_Matrix:
      e00: 1
      e01: 0
      e02: 0
      e03: 0
      e10: 0
      e11: 1
      e12: 0
      e13: 0
      e20: 0
      e21: 0
      e22: 1
      e23: 0
      e30: 0
      e31: 0
      e32: 0
      e33: 1
    m_Color: {r: 1, g: 1, b: 1, a: 1}
  - m_Tile: {fileID: 11400000, guid: 1244fd2ddf302294bb929ed339d06990, type: 2}
    m_Matrix:
      e00: 1
      e01: 0
      e02: 0
      e03: 0
      e10: 0
      e11: 1
      e12: 0
      e13: 0
      e20: 0
      e21: 0
      e22: 1
      e23: 0
      e30: 0
      e31: 0
      e32: 0
      e33: 1
    m_Color: {r: 1, g: 1, b: 1, a: 1}
  m_Size: {x: 2, y: 3, z: 1}
  m_Pivot: {x: 1, y: 0, z: 0}
  m_CanChangeZPosition: 0
