%YAML 1.1
%TAG !u! tag:unity3d.com,2011:
--- !u!74 &7400000
AnimationClip:
  m_ObjectHideFlags: 0
  m_CorrespondingSourceObject: {fileID: 0}
  m_PrefabInstance: {fileID: 0}
  m_PrefabAsset: {fileID: 0}
  m_Name: moveLeft
  serializedVersion: 6
  m_Legacy: 0
  m_Compressed: 0
  m_UseHighQualityCurve: 1
  m_RotationCurves: []
  m_CompressedRotationCurves: []
  m_EulerCurves: []
  m_PositionCurves: []
  m_ScaleCurves: []
  m_FloatCurves: []
  m_PPtrCurves:
  - curve:
    - time: 0
      value: {fileID: 8021634399386254346, guid: c6da41d6bec16e246b339413ff1a50f4,
        type: 3}
    - time: 0.1
      value: {fileID: -5009974486328725985, guid: c6da41d6bec16e246b339413ff1a50f4,
        type: 3}
    - time: 0.21666667
      value: {fileID: 4279944955745896374, guid: c6da41d6bec16e246b339413ff1a50f4,
        type: 3}
    - time: 0.31666666
      value: {fileID: -6556010163394951995, guid: c6da41d6bec16e246b339413ff1a50f4,
        type: 3}
    - time: 0.43333334
      value: {fileID: -6137511482640134484, guid: c6da41d6bec16e246b339413ff1a50f4,
        type: 3}
    - time: 0.53333336
      value: {fileID: 4675877502288989006, guid: c6da41d6bec16e246b339413ff1a50f4,
        type: 3}
    - time: 0.65
      value: {fileID: 5420923508827636230, guid: c6da41d6bec16e246b339413ff1a50f4,
        type: 3}
    - time: 0.75
      value: {fileID: -2831201769110286727, guid: c6da41d6bec16e246b339413ff1a50f4,
        type: 3}
    attribute: m_Sprite
    path: 
    classID: 212
    script: {fileID: 0}
  m_SampleRate: 60
  m_WrapMode: 0
  m_Bounds:
    m_Center: {x: 0, y: 0, z: 0}
    m_Extent: {x: 0, y: 0, z: 0}
  m_ClipBindingConstant:
    genericBindings:
    - serializedVersion: 2
      path: 0
      attribute: 0
      script: {fileID: 0}
      typeID: 212
      customType: 23
      isPPtrCurve: 1
    pptrCurveMapping:
    - {fileID: 8021634399386254346, guid: c6da41d6bec16e246b339413ff1a50f4, type: 3}
    - {fileID: -5009974486328725985, guid: c6da41d6bec16e246b339413ff1a50f4, type: 3}
    - {fileID: 4279944955745896374, guid: c6da41d6bec16e246b339413ff1a50f4, type: 3}
    - {fileID: -6556010163394951995, guid: c6da41d6bec16e246b339413ff1a50f4, type: 3}
    - {fileID: -6137511482640134484, guid: c6da41d6bec16e246b339413ff1a50f4, type: 3}
    - {fileID: 4675877502288989006, guid: c6da41d6bec16e246b339413ff1a50f4, type: 3}
    - {fileID: 5420923508827636230, guid: c6da41d6bec16e246b339413ff1a50f4, type: 3}
    - {fileID: -2831201769110286727, guid: c6da41d6bec16e246b339413ff1a50f4, type: 3}
  m_AnimationClipSettings:
    serializedVersion: 2
    m_AdditiveReferencePoseClip: {fileID: 0}
    m_AdditiveReferencePoseTime: 0
    m_StartTime: 0
    m_StopTime: 0.76666665
    m_OrientationOffsetY: 0
    m_Level: 0
    m_CycleOffset: 0
    m_HasAdditiveReferencePose: 0
    m_LoopTime: 1
    m_LoopBlend: 0
    m_LoopBlendOrientation: 0
    m_LoopBlendPositionY: 0
    m_LoopBlendPositionXZ: 0
    m_KeepOriginalOrientation: 0
    m_KeepOriginalPositionY: 1
    m_KeepOriginalPositionXZ: 0
    m_HeightFromFeet: 0
    m_Mirror: 0
  m_EditorCurves: []
  m_EulerEditorCurves: []
  m_HasGenericRootTransform: 0
  m_HasMotionFloatCurves: 0
  m_Events: []
