%YAML 1.1
%TAG !u! tag:unity3d.com,2011:
--- !u!78 &1
TagManager:
  serializedVersion: 2
  tags:
  - Enemy
  - gate
  - Boss
  layers:
  - Default
  - TransparentFX
  - Ignore Raycast
  - 
  - Water
  - UI
  - 
  - 
  - Enemy
  - Player
  - Map
  - 
  - 
  - 
  - 
  - 
  - 
  - 
  - 
  - 
  - 
  - 
  - 
  - 
  - 
  - 
  - 
  - 
  - 
  - 
  - 
  - 
  m_SortingLayers:
  - name: Default
    uniqueID: 0
    locked: 0
  - name: Map
    uniqueID: 3079808469
    locked: 0
  - name: Player
    uniqueID: 3468819197
    locked: 0
  - name: Enemy
    uniqueID: 638040215
    locked: 0
  - name: Boss
    uniqueID: 3446756371
    locked: 0
